[
    {
        "id": 1001,
        "name": "Torii",
        "category": "Asian",
        "address": "Cr 1 # 21-74",
        "isOpen": true,
        "phone": "3005796453",
        "description": "Sushi and bowls of differents flavors",
        "schedule": "L-V 10am - 4pm",
        "rate": "4",
        "longitude": -74.107,
        "latitude": 4.707,
        "imageName": "toriImage",
        "imageMenu1": "menuImage1",
        "imageMenu2": "menuImage2",
        "imageMenu3": "menuImage3",
        "imageMenu4": "menuImage4",
    },
    {
        "id": 1002,
        "name": "One Burrito",
        "category": "Mexican",
        "address": "Diagonal 20a # 1-32",
        "isOpen": true,
        "phone": "3005796453",
        "description": "Best mexican gastronomic experience",
        "schedule": "L-V 10am - 4pm",
        "rate": "4.6",
        "longitude": -74.107,
        "latitude": 4.635,
        "imageName": "OneBurritoImage",
        "imageMenu1": "menuImage1",
        "imageMenu2": "menuImage2",
        "imageMenu3": "menuImage3",
        "imageMenu4": "menuImage4"
    },
    {
            "id": 1003,
            "name": "Spoleto",
            "category": "Italian",
            "address": "123 Main Street",
            "isOpen": true,
            "phone": "555-123-4567",
            "description": "Delicious pizzas and pasta dishes",
            "schedule": "L-V 11am - 9pm",
            "rate": "4.8",
            "longitude": -74.107,
            "latitude": 4.645,
            "imageName": "spoletoImage",
            "imageMenu1": "menuImage1",
            "imageMenu2": "menuImage2",
            "imageMenu3": "menuImage3",
            "imageMenu4": "menuImage4",
        },
        {
            "id": 1004,
            "name": "La puerta",
            "category": "American",
            "address": "456 Oak Street",
            "isOpen": true,
            "phone": "555-987-6543",
            "description": "Mouthwatering burgers and fries",
            "schedule": "L-V 11:30am - 10pm",
            "rate": "4.5",
            "longitude": -74.107,
            "latitude": 4.603,
            "imageName": "LaPuertaImage",
            "imageMenu1": "menuImage1",
            "imageMenu2": "menuImage2",
            "imageMenu3": "menuImage3",
            "imageMenu4": "menuImage4",
        }
]
